<svg width="196" height="38" viewBox="0 0 196 38" fill="none" xmlns="http://www.w3.org/2000/svg">
    <g clip-path="url(#clip0)">
        <path d="M36.5417 -0.000488281H3.68984C1.92167 -0.000488281 0.488281 1.38285 0.488281 3.08927V34.9098C0.488281 36.6162 1.92167 37.9995 3.68984 37.9995H36.5417C38.3099 37.9995 39.7433 36.6162 39.7433 34.9098V3.08927C39.7433 1.38285 38.3099 -0.000488281 36.5417 -0.000488281Z" fill="white"/>
        <path d="M30.3613 7.738C30.8071 7.80213 31.2084 8.03446 31.4768 8.38395C31.7452 8.73343 31.8589 9.17147 31.7929 9.6018C31.7607 9.81507 31.6853 10.0201 31.571 10.2052C31.4566 10.3903 31.3055 10.5518 31.1264 10.6805C30.9473 10.8092 30.7436 10.9025 30.5271 10.9551C30.3105 11.0077 30.0853 11.0185 29.8644 10.987C27.7925 10.6902 24.8713 13.6235 21.6191 19.6166C17.5822 27.0583 13.85 30.5796 9.9941 30.3037C9.54473 30.271 9.12717 30.0675 8.83322 29.7379C8.53928 29.4082 8.39302 28.9794 8.4266 28.5457C8.49598 27.6409 9.30973 26.9624 10.2454 27.0293C12.3744 27.1813 15.336 24.1314 18.6135 18.0903C22.6738 10.6061 26.45 7.17885 30.3613 7.738Z" fill="#22292F" stroke="#22292F" stroke-width="0.912368"/>
        <path fill-rule="evenodd" clip-rule="evenodd" d="M49.0634 29.9672V8.03216H53.6272V26.1057H63.6491V29.9672H49.0625H49.0634ZM73.7975 30.245C68.8194 30.245 65.4997 26.9399 65.4997 22.4287C65.4997 17.9185 68.8184 14.6432 73.7966 14.6432C78.6481 14.6432 82.0634 17.7945 82.0634 22.4287C82.0634 27.0322 78.6481 30.2459 73.7975 30.2459V30.245ZM73.7975 26.5997C76.0316 26.5997 77.8194 24.9005 77.8194 22.4287C77.8194 19.9578 76.0944 18.2578 73.7975 18.2578C71.3722 18.2578 69.7438 20.0501 69.7438 22.4287C69.7438 24.7766 71.4031 26.5997 73.7975 26.5997ZM89.3722 30.2459C86.6909 30.2459 84.9359 28.6082 84.9359 25.2091V18.227H83.0844V14.8595H84.9359V9.94754L89.1172 9.51506V14.8595H93.3294V18.227H89.1163V24.6228C89.1163 25.951 89.4678 26.568 90.4569 26.568C90.9678 26.568 91.7337 26.3834 92.435 26.0432L93.4887 29.2877C92.4997 29.8125 91.4778 30.245 89.3722 30.245V30.2459ZM101.148 30.2459C98.4669 30.2459 96.7119 28.6082 96.7119 25.2091V18.227H94.8613V14.8595H96.7119V9.94754L100.893 9.51506V14.8595H105.105V18.227H100.893V24.6228C100.893 25.951 101.244 26.568 102.234 26.568C102.744 26.568 103.51 26.3834 104.212 26.0432L105.266 29.2877C104.276 29.8125 103.255 30.245 101.148 30.245V30.2459ZM110.436 12.8202C108.904 12.8202 107.787 11.7082 107.787 10.3185C107.787 8.95863 108.904 7.84668 110.436 7.84668C111.936 7.84668 113.084 8.95954 113.084 10.3185C113.084 11.7082 111.936 12.8211 110.436 12.8211V12.8202ZM108.298 29.9672V14.8595H112.479V29.9672H108.298ZM130.382 22.2749C130.382 22.7689 130.318 23.4792 130.287 23.7262H119.339C119.85 25.5493 121.35 26.6304 123.457 26.6304C125.212 26.6304 126.425 25.9202 127.255 24.9313L129.968 27.3723C128.659 29.01 126.649 30.245 123.17 30.245C118.382 30.245 115 27.1244 115 22.398C115 17.7945 118.287 14.6442 122.914 14.6442C127.318 14.6442 130.382 17.8561 130.382 22.2749ZM122.882 18.1655C121.191 18.1655 119.85 19.092 119.372 20.8228H126.234C125.818 19.2159 124.702 18.1655 122.882 18.1655Z" fill="white"/>
        <path fill-rule="evenodd" clip-rule="evenodd" d="M132.906 29.9675V8.03243H147.938V11.894H137.342V17.7641H146.182V21.6572H137.342V29.9675H132.906ZM153.555 12.8213C152.023 12.8213 150.906 11.7085 150.906 10.3188C150.906 8.95891 152.023 7.84696 153.555 7.84696C155.055 7.84696 156.204 8.95981 156.204 10.3188C156.204 11.7085 155.055 12.8213 153.555 12.8213ZM151.417 29.9675V14.8598H155.598V29.9675H151.416H151.417ZM159.012 29.9675V7.229H163.193V29.9675H159.012ZM181.098 22.2752C181.098 22.7692 181.034 23.4794 181.002 23.7264H170.055C170.566 25.5495 172.066 26.6307 174.172 26.6307C175.927 26.6307 177.14 25.9205 177.969 24.9316L180.682 27.3726C179.374 29.0102 177.363 30.2452 173.885 30.2452C169.097 30.2452 165.714 27.1247 165.714 22.3982C165.714 17.7948 169.002 14.6444 173.629 14.6444C178.034 14.6444 181.098 17.8563 181.098 22.2752ZM173.598 18.1658C171.906 18.1658 170.566 19.0922 170.087 20.8231H176.949C176.534 19.2162 175.416 18.1658 173.598 18.1658ZM189.394 30.2452C186.906 30.2452 184.768 29.4418 183.076 28.0213L185.087 25.2093C186.363 26.353 187.704 26.9401 189.427 26.9401C190.64 26.9401 191.31 26.4452 191.31 25.7042C191.31 25.0555 190.513 24.7153 188.502 24.0666C185.916 23.2324 183.683 22.0581 183.683 19.1239C183.683 16.4051 186.108 14.6435 189.332 14.6435C191.469 14.6435 193.225 15.2 195.013 16.5281L192.969 19.5247C191.789 18.4128 190.384 17.9188 189.236 17.9188C188.598 17.9188 187.768 18.2273 187.768 19.0316C187.768 19.6487 188.534 20.0811 190.065 20.6376C193.449 21.8418 195.427 22.553 195.427 25.5495C195.427 28.2068 193.48 30.2452 189.395 30.2452H189.394Z" fill="white"/>
    </g>
    <defs>
        <clipPath id="clip0">
            <rect width="195" height="38" fill="white" transform="translate(0.492188)"/>
        </clipPath>
    </defs>
</svg>
