<svg width="32" height="32" viewBox="0 0 32 32" fill="none" xmlns="http://www.w3.org/2000/svg">
<path d="M28 29.3333C27.6647 29.3337 27.3416 29.2072 27.0957 28.9792L23.1452 25.3333H12C10.9395 25.3322 9.92275 24.9104 9.17285 24.1605C8.42296 23.4106 8.00116 22.3938 8 21.3333V12C8.00116 10.9395 8.42296 9.92275 9.17285 9.17285C9.92275 8.42296 10.9395 8.00116 12 8H25.3333C26.3938 8.00116 27.4106 8.42296 28.1605 9.17285C28.9104 9.92275 29.3322 10.9395 29.3333 12V28C29.3332 28.3536 29.1927 28.6927 28.9427 28.9427C28.6927 29.1927 28.3536 29.3332 28 29.3333Z" fill="#C4C0F2"/>
<path d="M9.33356 12.0051C8.97994 12.0051 8.6408 11.8647 8.39075 11.6146C8.1407 11.3646 8.00022 11.0254 8.00022 10.6718C8.00022 10.3182 8.1407 9.97903 8.39075 9.72898C8.6408 9.47894 8.97994 9.33846 9.33356 9.33846C9.68718 9.33846 10.0263 9.19798 10.2764 8.94794C10.5264 8.69789 10.6669 8.35875 10.6669 8.00513C10.6669 7.6515 10.5264 7.31237 10.2764 7.06232C10.0263 6.81227 9.68718 6.67179 9.33356 6.67179C9.09962 6.67209 8.86987 6.73383 8.66729 6.85083C8.46472 6.96783 8.29643 7.13598 8.17926 7.33846C8.09177 7.49022 7.97522 7.62326 7.83629 7.72997C7.69736 7.83668 7.53877 7.91497 7.36957 7.96037C7.20038 8.00577 7.02389 8.01739 6.8502 7.99456C6.67652 7.97173 6.50903 7.91491 6.35731 7.82733C6.20559 7.73975 6.07261 7.62314 5.96597 7.48416C5.85934 7.34517 5.78113 7.18654 5.73581 7.01732C5.6905 6.8481 5.67897 6.67161 5.70189 6.49794C5.72481 6.32426 5.78172 6.1568 5.86937 6.00513C6.22044 5.39705 6.72539 4.8921 7.33346 4.54103C7.94154 4.18996 8.63131 4.00513 9.33345 4.00513C10.0356 4.00512 10.7254 4.18994 11.3334 4.54101C11.9415 4.89208 12.4465 5.39702 12.7976 6.00509C13.1486 6.61316 13.3335 7.30293 13.3335 8.00507C13.3335 8.70722 13.1487 9.39699 12.7976 10.0051C12.4465 10.6132 11.9416 11.1181 11.3335 11.4692C10.7255 11.8203 10.0357 12.0051 9.33356 12.0051ZM9.33356 15.9999C9.0716 15.9984 8.81588 15.9199 8.59827 15.774C8.38066 15.6282 8.2108 15.4215 8.10985 15.1798C8.00891 14.9381 7.98135 14.672 8.03062 14.4147C8.07988 14.1574 8.20379 13.9203 8.38689 13.733C8.64173 13.4892 8.98082 13.3531 9.3335 13.3531C9.68619 13.3531 10.0253 13.4892 10.2801 13.733C10.5217 13.9846 10.6598 14.3178 10.6669 14.6666C10.6728 14.8458 10.6362 15.0238 10.5601 15.1861C10.4954 15.3453 10.4003 15.4903 10.2801 15.6132C10.1509 15.7348 10.0021 15.8339 9.84001 15.9062C9.67899 15.9704 9.50689 16.0022 9.33356 15.9999Z" fill="#766CF0"/>
</svg>
